Name, Age, Email,City
Luis, 20,luisreales@hotmail.com,Barranquilla
Maria, 20,maria@hotmail.com,Buenos Aires
Josefa, 20,josefa@hotmail.com,Bogota
Luis, 20,luisreales@hotmail.com,Barranquilla
Maria, 20,maria@hotmail.com,Buenos Aires
Josefa, 20,josefa@hotmail.com,Bogota
Luis, 20,luisreales@hotmail.com,Barranquilla
Maria, 20,maria@hotmail.com,Buenos Aires
Josefa, 20,josefa@hotmail.com,Bogota
Luis, 20,luisreales@hotmail.com,Barranquilla
Maria, 20,maria@hotmail.com,Buenos Aires
Josefa, 20,josefa@hotmail.com,Bogota
Luis, 20,luisreales@hotmail.com,Barranquilla
Maria, 20,maria@hotmail.com,Buenos Aires
Josefa, 20,josefa@hotmail.com,Bogota
Luis, 20,luisreales@hotmail.com,Barranquilla
Maria, 20,maria@hotmail.com,Buenos Aires
Josefa, 20,josefa@hotmail.com,Bogota
Luis, 20,luisreales@hotmail.com,Barranquilla
Maria, 20,maria@hotmail.com,Buenos Aires
Josefa, 20,josefa@hotmail.com,Bogota
Luis, 20,luisreales@hotmail.com,Barranquilla
Maria, 20,maria@hotmail.com,Buenos Aires
Josefa, 20,josefa@hotmail.com,Bogota
Luis, 20,luisreales@hotmail.com,Barranquilla
Maria, 20,maria@hotmail.com,Buenos Aires
Josefa, 20,josefa@hotmail.com,Bogota
Luis, 20,luisreales@hotmail.com,Barranquilla
Maria, 20,maria@hotmail.com,Buenos Aires
Josefa, 20,josefa@hotmail.com,Bogota
Luis, 20,luisreales@hotmail.com,Barranquilla
Maria, 20,maria@hotmail.com,Buenos Aires
Josefa, 20,josefa@hotmail.com,Bogota
Luis, 20,luisreales@hotmail.com,Barranquilla
Maria, 20,maria@hotmail.com,Buenos Aires
Josefa, 20,josefa@hotmail.com,Bogota
Luis, 20,luisreales@hotmail.com,Barranquilla
Maria, 20,maria@hotmail.com,Buenos Aires
Josefa, 20,josefa@hotmail.com,Bogota
Luis, 20,luisreales@hotmail.com,Barranquilla
Maria, 20,maria@hotmail.com,Buenos Aires
Josefa, 20,josefa@hotmail.com,Bogota
Luis, 20,luisreales@hotmail.com,Barranquilla
Maria, 20,maria@hotmail.com,Buenos Aires
Josefa, 20,josefa@hotmail.com,Bogota
Luis, 20,luisreales@hotmail.com,Barranquilla
Maria, 20,maria@hotmail.com,Buenos Aires
Josefa, 20,josefa@hotmail.com,Bogota
Luis, 20,luisreales@hotmail.com,Barranquilla
Maria, 20,maria@hotmail.com,Buenos Aires
Josefa, 20,josefa@hotmail.com,Bogota
Luis, 20,luisreales@hotmail.com,Barranquilla
Maria, 20,maria@hotmail.com,Buenos Aires
Josefa, 20,josefa@hotmail.com,Bogota
Luis, 20,luisreales@hotmail.com,Barranquilla
Maria, 20,maria@hotmail.com,Buenos Aires
Josefa, 20,josefa@hotmail.com,Bogota
Luis, 20,luisreales@hotmail.com,Barranquilla
Maria, 20,maria@hotmail.com,Buenos Aires
Josefa, 20,josefa@hotmail.com,Bogota
Luis, 20,luisreales@hotmail.com,Barranquilla
Maria, 20,maria@hotmail.com,Buenos Aires
Josefa, 20,josefa@hotmail.com,Bogota
Luis, 20,luisreales@hotmail.com,Barranquilla
Maria, 20,maria@hotmail.com,Buenos Aires
Josefa, 20,josefa@hotmail.com,Bogota
Luis, 20,luisreales@hotmail.com,Barranquilla
Maria, 20,maria@hotmail.com,Buenos Aires
Josefa, 20,josefa@hotmail.com,Bogota
Luis, 20,luisreales@hotmail.com,Barranquilla
Maria, 20,maria@hotmail.com,Buenos Aires
Josefa, 20,josefa@hotmail.com,Bogota
Luis, 20,luisreales@hotmail.com,Barranquilla
Maria, 20,maria@hotmail.com,Buenos Aires
Josefa, 20,josefa@hotmail.com,Bogota
Luis, 20,luisreales@hotmail.com,Barranquilla
Maria, 20,maria@hotmail.com,Buenos Aires
Josefa, 20,josefa@hotmail.com,Bogota
Luis, 20,luisreales@hotmail.com,Barranquilla
Maria, 20,maria@hotmail.com,Buenos Aires
Josefa, 20,josefa@hotmail.com,Bogota
Luis, 20,luisreales@hotmail.com,Barranquilla
Maria, 20,maria@hotmail.com,Buenos Aires
Josefa, 20,josefa@hotmail.com,Bogota
Luis, 20,luisreales@hotmail.com,Barranquilla
Maria, 20,maria@hotmail.com,Buenos Aires
Josefa, 20,josefa@hotmail.com,Bogota
Luis, 20,luisreales@hotmail.com,Barranquilla
Maria, 20,maria@hotmail.com,Buenos Aires
Josefa, 20,josefa@hotmail.com,Bogota
Luis, 20,luisreales@hotmail.com,Barranquilla
Maria, 20,maria@hotmail.com,Buenos Aires
Josefa, 20,josefa@hotmail.com,Bogota
Luis, 20,luisreales@hotmail.com,Barranquilla
Maria, 20,maria@hotmail.com,Buenos Aires
Josefa, 20,josefa@hotmail.com,Bogota
Luis, 20,luisreales@hotmail.com,Barranquilla
Maria, 20,maria@hotmail.com,Buenos Aires
Josefa, 20,josefa@hotmail.com,Bogota
Luis, 20,luisreales@hotmail.com,Barranquilla
Maria, 20,maria@hotmail.com,Buenos Aires
Josefa, 20,josefa@hotmail.com,Bogota
Luis, 20,luisreales@hotmail.com,Barranquilla
Maria, 20,maria@hotmail.com,Buenos Aires
Josefa, 20,josefa@hotmail.com,Bogota
Luis, 20,luisreales@hotmail.com,Barranquilla
Maria, 20,maria@hotmail.com,Buenos Aires
Josefa, 20,josefa@hotmail.com,Bogota
Luis, 20,luisreales@hotmail.com,Barranquilla
Maria, 20,maria@hotmail.com,Buenos Aires
Josefa, 20,josefa@hotmail.com,Bogota
Luis, 20,luisreales@hotmail.com,Barranquilla
Maria, 20,maria@hotmail.com,Buenos Aires
Josefa, 20,josefa@hotmail.com,Bogota
Luis, 20,luisreales@hotmail.com,Barranquilla
Maria, 20,maria@hotmail.com,Buenos Aires
Josefa, 20,josefa@hotmail.com,Bogota
Luis, 20,luisreales@hotmail.com,Barranquilla
Maria, 20,maria@hotmail.com,Buenos Aires
Josefa, 20,josefa@hotmail.com,Bogota
Luis, 20,luisreales@hotmail.com,Barranquilla
Maria, 20,maria@hotmail.com,Buenos Aires
Josefa, 20,josefa@hotmail.com,Bogota
Luis, 20,luisreales@hotmail.com,Barranquilla
Maria, 20,maria@hotmail.com,Buenos Aires
Josefa, 20,josefa@hotmail.com,Bogota
Luis, 20,luisreales@hotmail.com,Barranquilla
Maria, 20,maria@hotmail.com,Buenos Aires
Josefa, 20,josefa@hotmail.com,Bogota
Luis, 20,luisreales@hotmail.com,Barranquilla
Maria, 20,maria@hotmail.com,Buenos Aires
Josefa, 20,josefa@hotmail.com,Bogota
Luis, 20,luisreales@hotmail.com,Barranquilla
Maria, 20,maria@hotmail.com,Buenos Aires
Josefa, 20,josefa@hotmail.com,Bogota
Luis, 20,luisreales@hotmail.com,Barranquilla
Maria, 20,maria@hotmail.com,Buenos Aires
Josefa, 20,josefa@hotmail.com,Bogota
Luis, 20,luisreales@hotmail.com,Barranquilla
Maria, 20,maria@hotmail.com,Buenos Aires
Josefa, 20,josefa@hotmail.com,Bogota
Luis, 20,luisreales@hotmail.com,Barranquilla
Maria, 20,maria@hotmail.com,Buenos Aires
Josefa, 20,josefa@hotmail.com,Bogota
Luis, 20,luisreales@hotmail.com,Barranquilla
Maria, 20,maria@hotmail.com,Buenos Aires
Josefa, 20,josefa@hotmail.com,Bogota
Luis, 20,luisreales@hotmail.com,Barranquilla
Maria, 20,maria@hotmail.com,Buenos Aires
Josefa, 20,josefa@hotmail.com,Bogota
Luis, 20,luisreales@hotmail.com,Barranquilla
Maria, 20,maria@hotmail.com,Buenos Aires
Josefa, 20,josefa@hotmail.com,Bogota
Luis, 20,luisreales@hotmail.com,Barranquilla
Maria, 20,maria@hotmail.com,Buenos Aires
Josefa, 20,josefa@hotmail.com,Bogota
Luis, 20,luisreales@hotmail.com,Barranquilla
Maria, 20,maria@hotmail.com,Buenos Aires
Josefa, 20,josefa@hotmail.com,Bogota
Luis, 20,luisreales@hotmail.com,Barranquilla
Maria, 20,maria@hotmail.com,Buenos Aires
Josefa, 20,josefa@hotmail.com,Bogota
Luis, 20,luisreales@hotmail.com,Barranquilla
Maria, 20,maria@hotmail.com,Buenos Aires
Josefa, 20,josefa@hotmail.com,Bogota
Luis, 20,luisreales@hotmail.com,Barranquilla
Maria, 20,maria@hotmail.com,Buenos Aires
Josefa, 20,josefa@hotmail.com,Bogota
Luis, 20,luisreales@hotmail.com,Barranquilla
Maria, 20,maria@hotmail.com,Buenos Aires
Josefa, 20,josefa@hotmail.com,Bogota
Luis, 20,luisreales@hotmail.com,Barranquilla
Maria, 20,maria@hotmail.com,Buenos Aires
Josefa, 20,josefa@hotmail.com,Bogota
Luis, 20,luisreales@hotmail.com,Barranquilla
Maria, 20,maria@hotmail.com,Buenos Aires
Josefa, 20,josefa@hotmail.com,Bogota
Luis, 20,luisreales@hotmail.com,Barranquilla
Maria, 20,maria@hotmail.com,Buenos Aires
Josefa, 20,josefa@hotmail.com,Bogota
Luis, 20,luisreales@hotmail.com,Barranquilla
Maria, 20,maria@hotmail.com,Buenos Aires
Josefa, 20,josefa@hotmail.com,Bogota
Luis, 20,luisreales@hotmail.com,Barranquilla
Maria, 20,maria@hotmail.com,Buenos Aires
Josefa, 20,josefa@hotmail.com,Bogota
Luis, 20,luisreales@hotmail.com,Barranquilla
Maria, 20,maria@hotmail.com,Buenos Aires
Josefa, 20,josefa@hotmail.com,Bogota
Luis, 20,luisreales@hotmail.com,Barranquilla
Maria, 20,maria@hotmail.com,Buenos Aires
Josefa, 20,josefa@hotmail.com,Bogota
Luis, 20,luisreales@hotmail.com,Barranquilla
Maria, 20,maria@hotmail.com,Buenos Aires
Josefa, 20,josefa@hotmail.com,Bogota
Luis, 20,luisreales@hotmail.com,Barranquilla
Maria, 20,maria@hotmail.com,Buenos Aires
Josefa, 20,josefa@hotmail.com,Bogota
Luis, 20,luisreales@hotmail.com,Barranquilla
Maria, 20,maria@hotmail.com,Buenos Aires
Josefa, 20,josefa@hotmail.com,Bogota
Luis, 20,luisreales@hotmail.com,Barranquilla
Maria, 20,maria@hotmail.com,Buenos Aires
Josefa, 20,josefa@hotmail.com,Bogota
Luis, 20,luisreales@hotmail.com,Barranquilla
Maria, 20,maria@hotmail.com,Buenos Aires
Josefa, 20,josefa@hotmail.com,Bogota
Luis, 20,luisreales@hotmail.com,Barranquilla
Maria, 20,maria@hotmail.com,Buenos Aires
Josefa, 20,josefa@hotmail.com,Bogota
Luis, 20,luisreales@hotmail.com,Barranquilla
Maria, 20,maria@hotmail.com,Buenos Aires
Josefa, 20,josefa@hotmail.com,Bogota
Luis, 20,luisreales@hotmail.com,Barranquilla
Maria, 20,maria@hotmail.com,Buenos Aires
Josefa, 20,josefa@hotmail.com,Bogota
Luis, 20,luisreales@hotmail.com,Barranquilla
Maria, 20,maria@hotmail.com,Buenos Aires
Josefa, 20,josefa@hotmail.com,Bogota
Luis, 20,luisreales@hotmail.com,Barranquilla
Maria, 20,maria@hotmail.com,Buenos Aires
Josefa, 20,josefa@hotmail.com,Bogota
Luis, 20,luisreales@hotmail.com,Barranquilla
Maria, 20,maria@hotmail.com,Buenos Aires
Josefa, 20,josefa@hotmail.com,Bogota
Luis, 20,luisreales@hotmail.com,Barranquilla
Maria, 20,maria@hotmail.com,Buenos Aires
Josefa, 20,josefa@hotmail.com,Bogota
Luis, 20,luisreales@hotmail.com,Barranquilla
Maria, 20,maria@hotmail.com,Buenos Aires
Josefa, 20,josefa@hotmail.com,Bogota
Luis, 20,luisreales@hotmail.com,Barranquilla
Maria, 20,maria@hotmail.com,Buenos Aires
Josefa, 20,josefa@hotmail.com,Bogota
Luis, 20,luisreales@hotmail.com,Barranquilla
Maria, 20,maria@hotmail.com,Buenos Aires
Josefa, 20,josefa@hotmail.com,Bogota
Luis, 20,luisreales@hotmail.com,Barranquilla
Maria, 20,maria@hotmail.com,Buenos Aires
Josefa, 20,josefa@hotmail.com,Bogota
Luis, 20,luisreales@hotmail.com,Barranquilla
Maria, 20,maria@hotmail.com,Buenos Aires
Josefa, 20,josefa@hotmail.com,Bogota
Luis, 20,luisreales@hotmail.com,Barranquilla
Maria, 20,maria@hotmail.com,Buenos Aires
Josefa, 20,josefa@hotmail.com,Bogota
Luis, 20,luisreales@hotmail.com,Barranquilla
Maria, 20,maria@hotmail.com,Buenos Aires
Josefa, 20,josefa@hotmail.com,Bogota
Luis, 20,luisreales@hotmail.com,Barranquilla
Maria, 20,maria@hotmail.com,Buenos Aires
Josefa, 20,josefa@hotmail.com,Bogota
Luis, 20,luisreales@hotmail.com,Barranquilla
Maria, 20,maria@hotmail.com,Buenos Aires
Josefa, 20,josefa@hotmail.com,Bogota
Luis, 20,luisreales@hotmail.com,Barranquilla
Maria, 20,maria@hotmail.com,Buenos Aires
Josefa, 20,josefa@hotmail.com,Bogota
Luis, 20,luisreales@hotmail.com,Barranquilla
Maria, 20,maria@hotmail.com,Buenos Aires
Josefa, 20,josefa@hotmail.com,Bogota
Luis, 20,luisreales@hotmail.com,Barranquilla
Maria, 20,maria@hotmail.com,Buenos Aires
Josefa, 20,josefa@hotmail.com,Bogota
Luis, 20,luisreales@hotmail.com,Barranquilla
Maria, 20,maria@hotmail.com,Buenos Aires
Josefa, 20,josefa@hotmail.com,Bogota
Luis, 20,luisreales@hotmail.com,Barranquilla
Maria, 20,maria@hotmail.com,Buenos Aires
Josefa, 20,josefa@hotmail.com,Bogota
Luis, 20,luisreales@hotmail.com,Barranquilla
Maria, 20,maria@hotmail.com,Buenos Aires
Josefa, 20,josefa@hotmail.com,Bogota
Luis, 20,luisreales@hotmail.com,Barranquilla
Maria, 20,maria@hotmail.com,Buenos Aires
Josefa, 20,josefa@hotmail.com,Bogota
Luis, 20,luisreales@hotmail.com,Barranquilla
Maria, 20,maria@hotmail.com,Buenos Aires
Josefa, 20,josefa@hotmail.com,Bogota
Luis, 20,luisreales@hotmail.com,Barranquilla
Maria, 20,maria@hotmail.com,Buenos Aires
Josefa, 20,josefa@hotmail.com,Bogota
Luis, 20,luisreales@hotmail.com,Barranquilla
Maria, 20,maria@hotmail.com,Buenos Aires
Josefa, 20,josefa@hotmail.com,Bogota
Luis, 20,luisreales@hotmail.com,Barranquilla
Maria, 20,maria@hotmail.com,Buenos Aires
Josefa, 20,josefa@hotmail.com,Bogota
Luis, 20,luisreales@hotmail.com,Barranquilla
Maria, 20,maria@hotmail.com,Buenos Aires
Josefa, 20,josefa@hotmail.com,Bogota
Luis, 20,luisreales@hotmail.com,Barranquilla
Maria, 20,maria@hotmail.com,Buenos Aires
Josefa, 20,josefa@hotmail.com,Bogota
Luis, 20,luisreales@hotmail.com,Barranquilla
Maria, 20,maria@hotmail.com,Buenos Aires
Josefa, 20,josefa@hotmail.com,Bogota
Luis, 20,luisreales@hotmail.com,Barranquilla
Maria, 20,maria@hotmail.com,Buenos Aires
Josefa, 20,josefa@hotmail.com,Bogota
Luis, 20,luisreales@hotmail.com,Barranquilla
Maria, 20,maria@hotmail.com,Buenos Aires
Josefa, 20,josefa@hotmail.com,Bogota
Luis, 20,luisreales@hotmail.com,Barranquilla
Maria, 20,maria@hotmail.com,Buenos Aires
Josefa, 20,josefa@hotmail.com,Bogota
Luis, 20,luisreales@hotmail.com,Barranquilla
Maria, 20,maria@hotmail.com,Buenos Aires
Josefa, 20,josefa@hotmail.com,Bogota
Luis, 20,luisreales@hotmail.com,Barranquilla
Maria, 20,maria@hotmail.com,Buenos Aires
Josefa, 20,josefa@hotmail.com,Bogota
Luis, 20,luisreales@hotmail.com,Barranquilla
Maria, 20,maria@hotmail.com,Buenos Aires
Josefa, 20,josefa@hotmail.com,Bogota
Luis, 20,luisreales@hotmail.com,Barranquilla
Maria, 20,maria@hotmail.com,Buenos Aires
Josefa, 20,josefa@hotmail.com,Bogota
Luis, 20,luisreales@hotmail.com,Barranquilla
Maria, 20,maria@hotmail.com,Buenos Aires
Josefa, 20,josefa@hotmail.com,Bogota
Luis, 20,luisreales@hotmail.com,Barranquilla
Maria, 20,maria@hotmail.com,Buenos Aires
Josefa, 20,josefa@hotmail.com,Bogota
Luis, 20,luisreales@hotmail.com,Barranquilla
Maria, 20,maria@hotmail.com,Buenos Aires
Josefa, 20,josefa@hotmail.com,Bogota
Luis, 20,luisreales@hotmail.com,Barranquilla
Maria, 20,maria@hotmail.com,Buenos Aires
Josefa, 20,josefa@hotmail.com,Bogota
Luis, 20,luisreales@hotmail.com,Barranquilla
Maria, 20,maria@hotmail.com,Buenos Aires
Josefa, 20,josefa@hotmail.com,Bogota
Luis, 20,luisreales@hotmail.com,Barranquilla
Maria, 20,maria@hotmail.com,Buenos Aires
Josefa, 20,josefa@hotmail.com,Bogota
Luis, 20,luisreales@hotmail.com,Barranquilla
Maria, 20,maria@hotmail.com,Buenos Aires
Josefa, 20,josefa@hotmail.com,Bogota
Luis, 20,luisreales@hotmail.com,Barranquilla
Maria, 20,maria@hotmail.com,Buenos Aires
Josefa, 20,josefa@hotmail.com,Bogota
Luis, 20,luisreales@hotmail.com,Barranquilla
Maria, 20,maria@hotmail.com,Buenos Aires
Josefa, 20,josefa@hotmail.com,Bogota
Luis, 20,luisreales@hotmail.com,Barranquilla
Maria, 20,maria@hotmail.com,Buenos Aires
Josefa, 20,josefa@hotmail.com,Bogota
Luis, 20,luisreales@hotmail.com,Barranquilla
Maria, 20,maria@hotmail.com,Buenos Aires
Josefa, 20,josefa@hotmail.com,Bogota
Luis, 20,luisreales@hotmail.com,Barranquilla
Maria, 20,maria@hotmail.com,Buenos Aires
Josefa, 20,josefa@hotmail.com,Bogota
Luis, 20,luisreales@hotmail.com,Barranquilla
Maria, 20,maria@hotmail.com,Buenos Aires
Josefa, 20,josefa@hotmail.com,Bogota
Luis, 20,luisreales@hotmail.com,Barranquilla
Maria, 20,maria@hotmail.com,Buenos Aires
Josefa, 20,josefa@hotmail.com,Bogota
Luis, 20,luisreales@hotmail.com,Barranquilla
Maria, 20,maria@hotmail.com,Buenos Aires
Josefa, 20,josefa@hotmail.com,Bogota
Luis, 20,luisreales@hotmail.com,Barranquilla
Maria, 20,maria@hotmail.com,Buenos Aires
Josefa, 20,josefa@hotmail.com,Bogota
Luis, 20,luisreales@hotmail.com,Barranquilla
Maria, 20,maria@hotmail.com,Buenos Aires
Josefa, 20,josefa@hotmail.com,Bogota
Luis, 20,luisreales@hotmail.com,Barranquilla
Maria, 20,maria@hotmail.com,Buenos Aires
Josefa, 20,josefa@hotmail.com,Bogota
Luis, 20,luisreales@hotmail.com,Barranquilla
Maria, 20,maria@hotmail.com,Buenos Aires
Josefa, 20,josefa@hotmail.com,Bogota
Luis, 20,luisreales@hotmail.com,Barranquilla
Maria, 20,maria@hotmail.com,Buenos Aires
Josefa, 20,josefa@hotmail.com,Bogota
Luis, 20,luisreales@hotmail.com,Barranquilla
Maria, 20,maria@hotmail.com,Buenos Aires
Josefa, 20,josefa@hotmail.com,Bogota
Luis, 20,luisreales@hotmail.com,Barranquilla
Maria, 20,maria@hotmail.com,Buenos Aires
Josefa, 20,josefa@hotmail.com,Bogota
Luis, 20,luisreales@hotmail.com,Barranquilla
Maria, 20,maria@hotmail.com,Buenos Aires
Josefa, 20,josefa@hotmail.com,Bogota
Luis, 20,luisreales@hotmail.com,Barranquilla
Maria, 20,maria@hotmail.com,Buenos Aires
Josefa, 20,josefa@hotmail.com,Bogota
Luis, 20,luisreales@hotmail.com,Barranquilla
Maria, 20,maria@hotmail.com,Buenos Aires
Josefa, 20,josefa@hotmail.com,Bogota
Luis, 20,luisreales@hotmail.com,Barranquilla
Maria, 20,maria@hotmail.com,Buenos Aires
Josefa, 20,josefa@hotmail.com,Bogota
Luis, 20,luisreales@hotmail.com,Barranquilla
Maria, 20,maria@hotmail.com,Buenos Aires
Josefa, 20,josefa@hotmail.com,Bogota
Luis, 20,luisreales@hotmail.com,Barranquilla
Maria, 20,maria@hotmail.com,Buenos Aires
Josefa, 20,josefa@hotmail.com,Bogota
Luis, 20,luisreales@hotmail.com,Barranquilla
Maria, 20,maria@hotmail.com,Buenos Aires
Josefa, 20,josefa@hotmail.com,Bogota
Luis, 20,luisreales@hotmail.com,Barranquilla
Maria, 20,maria@hotmail.com,Buenos Aires
Josefa, 20,josefa@hotmail.com,Bogota
Luis, 20,luisreales@hotmail.com,Barranquilla
Maria, 20,maria@hotmail.com,Buenos Aires
Josefa, 20,josefa@hotmail.com,Bogota
Luis, 20,luisreales@hotmail.com,Barranquilla
Maria, 20,maria@hotmail.com,Buenos Aires
Josefa, 20,josefa@hotmail.com,Bogota
Luis, 20,luisreales@hotmail.com,Barranquilla
Maria, 20,maria@hotmail.com,Buenos Aires
Josefa, 20,josefa@hotmail.com,Bogota
Luis, 20,luisreales@hotmail.com,Barranquilla
Maria, 20,maria@hotmail.com,Buenos Aires
Josefa, 20,josefa@hotmail.com,Bogota
Luis, 20,luisreales@hotmail.com,Barranquilla
Maria, 20,maria@hotmail.com,Buenos Aires
Josefa, 20,josefa@hotmail.com,Bogota
Luis, 20,luisreales@hotmail.com,Barranquilla
Maria, 20,maria@hotmail.com,Buenos Aires
Josefa, 20,josefa@hotmail.com,Bogota
Luis, 20,luisreales@hotmail.com,Barranquilla
Maria, 20,maria@hotmail.com,Buenos Aires
Josefa, 20,josefa@hotmail.com,Bogota
Luis, 20,luisreales@hotmail.com,Barranquilla
Maria, 20,maria@hotmail.com,Buenos Aires
Josefa, 20,josefa@hotmail.com,Bogota
Luis, 20,luisreales@hotmail.com,Barranquilla
Maria, 20,maria@hotmail.com,Buenos Aires
Josefa, 20,josefa@hotmail.com,Bogota
Luis, 20,luisreales@hotmail.com,Barranquilla
Maria, 20,maria@hotmail.com,Buenos Aires
Josefa, 20,josefa@hotmail.com,Bogota
Luis, 20,luisreales@hotmail.com,Barranquilla
Maria, 20,maria@hotmail.com,Buenos Aires
Josefa, 20,josefa@hotmail.com,Bogota
Luis, 20,luisreales@hotmail.com,Barranquilla
Maria, 20,maria@hotmail.com,Buenos Aires
Josefa, 20,josefa@hotmail.com,Bogota
Luis, 20,luisreales@hotmail.com,Barranquilla
Maria, 20,maria@hotmail.com,Buenos Aires
Josefa, 20,josefa@hotmail.com,Bogota
Luis, 20,luisreales@hotmail.com,Barranquilla
Maria, 20,maria@hotmail.com,Buenos Aires
Josefa, 20,josefa@hotmail.com,Bogota
Luis, 20,luisreales@hotmail.com,Barranquilla
Maria, 20,maria@hotmail.com,Buenos Aires
Josefa, 20,josefa@hotmail.com,Bogota
Luis, 20,luisreales@hotmail.com,Barranquilla
Maria, 20,maria@hotmail.com,Buenos Aires
Josefa, 20,josefa@hotmail.com,Bogota
Luis, 20,luisreales@hotmail.com,Barranquilla
Maria, 20,maria@hotmail.com,Buenos Aires
Josefa, 20,josefa@hotmail.com,Bogota
Luis, 20,luisreales@hotmail.com,Barranquilla
Maria, 20,maria@hotmail.com,Buenos Aires
Josefa, 20,josefa@hotmail.com,Bogota
Luis, 20,luisreales@hotmail.com,Barranquilla
Maria, 20,maria@hotmail.com,Buenos Aires
Josefa, 20,josefa@hotmail.com,Bogota
Luis, 20,luisreales@hotmail.com,Barranquilla
Maria, 20,maria@hotmail.com,Buenos Aires
Josefa, 20,josefa@hotmail.com,Bogota
Luis, 20,luisreales@hotmail.com,Barranquilla
Maria, 20,maria@hotmail.com,Buenos Aires
Josefa, 20,josefa@hotmail.com,Bogota
Luis, 20,luisreales@hotmail.com,Barranquilla
Maria, 20,maria@hotmail.com,Buenos Aires
Josefa, 20,josefa@hotmail.com,Bogota
Luis, 20,luisreales@hotmail.com,Barranquilla
Maria, 20,maria@hotmail.com,Buenos Aires
Josefa, 20,josefa@hotmail.com,Bogota
Luis, 20,luisreales@hotmail.com,Barranquilla
Maria, 20,maria@hotmail.com,Buenos Aires
Josefa, 20,josefa@hotmail.com,Bogota
Luis, 20,luisreales@hotmail.com,Barranquilla
Maria, 20,maria@hotmail.com,Buenos Aires
Josefa, 20,josefa@hotmail.com,Bogota
Luis, 20,luisreales@hotmail.com,Barranquilla
Maria, 20,maria@hotmail.com,Buenos Aires
Josefa, 20,josefa@hotmail.com,Bogota
Luis, 20,luisreales@hotmail.com,Barranquilla
Maria, 20,maria@hotmail.com,Buenos Aires
Josefa, 20,josefa@hotmail.com,Bogota
Luis, 20,luisreales@hotmail.com,Barranquilla
Maria, 20,maria@hotmail.com,Buenos Aires
Josefa, 20,josefa@hotmail.com,Bogota
Luis, 20,luisreales@hotmail.com,Barranquilla
Maria, 20,maria@hotmail.com,Buenos Aires
Josefa, 20,josefa@hotmail.com,Bogota
Luis, 20,luisreales@hotmail.com,Barranquilla
Maria, 20,maria@hotmail.com,Buenos Aires
Josefa, 20,josefa@hotmail.com,Bogota
Luis, 20,luisreales@hotmail.com,Barranquilla
Maria, 20,maria@hotmail.com,Buenos Aires
Josefa, 20,josefa@hotmail.com,Bogota
Luis, 20,luisreales@hotmail.com,Barranquilla
Maria, 20,maria@hotmail.com,Buenos Aires
Josefa, 20,josefa@hotmail.com,Bogota
